{
  "data": [
    {
      "name": "Kezia Elizabeth",
      "profile": "https://s3-alpha-sig.figma.com/img/b34d/63e0/ac68d41159936e48faef03cc485ef9fb?Expires=1629072000&Signature=CfE8dV507ooWXVUhUZlYjaCz2X~KUrqG65pM7zPalVYWgwJIhnAbtRQtW3tUo-BicAfSWs0wBFk2toVZ~o9eEnNRKjEHrsKbm-lFHmto~spaUtWNyMVeLCNM4DXgbCL8jFhf1lpxpptKavboggRZvrtSnc9Kxck6J1CqoxnyxTTdKC3wRjFeUPMqU4No~ZpS5kk0b3hf8T~~CtIgiiXHI0JxVceCLeHTS5BboSWj6-Og6O9L9TKKpo-OI8V-uPtVNltCbnjLHa~fyF88mPRziDIr2qVI7yEkMKWltS4FVwh3GOgsxnJmzGHW7CF1BVKYPCgRHxVXKqaEd4seBkSy6Q__&Key-Pair-Id=APKAINTVSUGEWH5XD5UA",
      "image": "https://s3-alpha-sig.figma.com/img/864b/bc74/f0c65c47893aaf0e836600a32b1ac5a8?Expires=1629072000&Signature=KgQKiXi~qnv9YI~tnKlAbSrWZrngrcXhHNt40t~xlMmtnkf236jJBYXjTfH2c1lv5Euqg3Yx5icCb0UNSVR31bSk7xoARGj1fulZldfP5Sfb2fOjRW404X32oXp0~qw4GM6x8Qi2aT3ejvcUij1tFIxBYfPSnStorxgj1RUr5VQ~qTzneHPdQYhCMk6lVmkUao1slHq6QyozwRdHVpzGBnZ5wN0BIWwblmY67IeJLgF27XWDSm31AiHvlUCKTUexUO46IOlI~yrE95AcAXW3k6ET21SNMJzHe2OORw67OYWDj79Yz2bbCaSz5LWkfwOuScNUqrnjE3ry5sj5Yve1Yw__&Key-Pair-Id=APKAINTVSUGEWH5XD5UA",
      "content": "#Vegan Toast Hacks That Will Literally Change Your Life Forever. We’ve got a slew of toasty ideas that’ll take your morning meals to new heights. Cheers to a healthier daily lifestyle!",
      "created_at": "2021-08-06 14:03:00",
      "is_like": true,
      "comment": {
        "total": 8,
        "data": []
      },
      "share": {
        "total": 100,
        "data": []
      },
      "like": {
        "total": 48,
        "data": []
      }
    },
    {
      "name": "Andrew Jones",
      "profile": "https://s3-alpha-sig.figma.com/img/58d1/ebe9/732fbbf4ec0e01e9df1fea72cdfca800?Expires=1629072000&Signature=MEAiQd5hBhDUqB47LTDOn1P832u3BfiAqYyiaNIthty2eWcUpNvRwxVr-qBNlkSX0I7sEM3w7aQIN2cWrLQSs9N32-5GTJAa3V5Z4tnKkEikjEH2Mv~TU-eR60YmKfcwL6~rHS1W-iYe--LKvH8LWnKSf~qaqhRTP63CY9QyUqAqURMzWv2bggPYPBBrShUXPWvDe8uzBW4RtznEY7iq-Vjxs-kBRdS2D8jmHPEP8l0UZExAk9W9UsVpMFZ0nY2GqnZLwAMGWCx3JLoZXCM0SDDWr~QMihX9FvTGSgU2iHdqwJjdGF1-ZbxLnIoEobJbgo41x0bVR5SlMVSFCDEgPA__&Key-Pair-Id=APKAINTVSUGEWH5XD5UA",
      "image": "https://s3-alpha-sig.figma.com/img/36e5/a236/33cf5be43d929f0548971af30fbda8e2?Expires=1629072000&Signature=QQ9Ak3bd9nNMc1f5fzrSkcYPNhwH50ba222S4te2yJhl14E~hvYtoZ7LGrJKukZSXgYUWafe~02R9kJJF44RNRNXdzD707QIxBzBp9FY41gfN~YFhvr1N0RLd7J-oFyk0yv-fRxplY~-AgnNxhpy-rTPIfa~HhIdXl9wxmyNVNBPIqep9x4VIbvZwq2uxadkBBNoAPCHbpS5T6gQSX7LvdSTtHdx06tnfQdonpCEZuIw2bWfq-MXvmQf50o0P-ltb1c3phJqWlTEZnOlr~6a9nhEh0dbaoX4LxGtVuh7tSAuMQvsDZDMEBL6PyokwR3Jn0gqRGRLVq~iBP5aqJR5uQ__&Key-Pair-Id=APKAINTVSUGEWH5XD5UA",
      "content": "#Travel list that will literally change your life forever. We’ve got few travel inspirations and interesting travel ideas that’ll take your vacation to next level! Cheers to a better travel style!",
      "created_at": "2021-08-06 14:03:00",
      "is_like": false,
      "comment": {
        "total": 8,
        "data": []
      },
      "share": {
        "total": 100,
        "data": []
      },
      "like": {
        "total": 48,
        "data": []
      }
    }
  ],
  "meta": {
    "current_page": 1,
    "total_page": 10
  }
}